{
  "name": "Valhalla.CommandLineArguments",
  "rootNamespace": "Valhalla.CommandLineArguments",
  "references": [],
  "includePlatforms": [],
  "excludePlatforms": [],
  "allowUnsafeCode": false,
  "overrideReferences": false,
  "precompiledReferences": [],
  "autoReferenced": true,
  "defineConstraints": [],
  "versionDefines": [],
  "noEngineReferences": false
}